Rotoehu QC – Lake Rotoehu Data Product
…
sensor_calibrations <- read_csv("data-raw/sensor_calibrations.csv")
sensor_scaling <- read_csv("data-raw/sensor_scaling.csv")

variable_ref <- read_csv("data-raw/variables.csv")

qc_filters <- read_csv("data-raw/qc_filters.csv")

sensor_map <- site_devices |> 
  select(site, device_id, date_from, date_to) |> 
  left_join(device_var, by = "device_id") |> 
  left_join(device_position, by = "device_id") |>
  mutate(var_ref_id = generate_var_ref(var_abbr, z_relative, reference)) 
sensor_map

# A tibble: 33 × 8
   site     device_id date_from           date_to             var_abbr reference
   <chr>    <chr>     <dttm>              <dttm>              <chr>    <chr>    
 1 f_Rotoe… sns_Sp_c… 2011-04-20 00:00:00 2013-06-26 00:00:00 f_chl    d        
 2 f_Rotoe… sns_TD_c… 2016-04-29 00:00:00 2022-05-05 00:00:00 f_chl    d        
 3 f_Rotoe… sns_Tr_m… 2013-06-28 00:00:00 2016-04-28 00:00:00 f_chl    d        
 4 f_Rotoe… sns_Tr_m… 2011-04-20 00:00:00 2014-12-19 12:45:00 f_phyc   d        
 5 f_Rotoe… sns_Tr_m… 2014-12-19 13:00:00 2021-03-17 14:00:00 f_phyc   d        
 6 f_Rotoe… sns_Tr_m… 2014-12-19 13:00:00 2021-03-17 14:00:00 f_phyc   d        
 7 f_Rotoe… sns_Tr_m… 2014-12-19 13:00:00 2021-03-17 14:00:00 f_phyc   d        
 8 f_Rotoe… sns_Tr_m… 2014-12-19 13:00:00 2021-03-17 14:00:00 f_phyc   d        
 9 f_Rotoe… sns_Vs_w… 2011-04-20 00:00:00 2022-05-05 00:00:00 t_air    h        
10 f_Rotoe… sns_Vs_w… 2011-04-20 00:00:00 2022-05-05 00:00:00 pr_baro  h        
# ℹ 23 more rows
# ℹ 2 more variables: z_relative <dbl>, var_ref_id <chr>
…
Figure 5: Plot raw data with basic QC filters applied.

6.2 Check when the buoy was out of the water

raw_long_device_filt <- raw_long_device_filt |> 
  remove_buoy_out(site_events = site_events) 

raw_long_device_filt |> 
  filter(var_ref_id == "c_ph_d100") 

# A tibble: 226,130 × 9
   datetime            var_ref_id site     device_id var_abbr raw_value qc_value
   <dttm>              <chr>      <chr>    <chr>     <chr>        <dbl>    <dbl>
 1 2013-06-30 00:00:00 c_ph_d100  f_Rotoe… sns_CS_i… c_ph           NaN       NA
 2 2013-06-30 00:15:00 c_ph_d100  f_Rotoe… sns_CS_i… c_ph           NaN       NA
 3 2013-06-30 00:30:00 c_ph_d100  f_Rotoe… sns_CS_i… c_ph           NaN       NA
 4 2013-06-30 00:45:00 c_ph_d100  f_Rotoe… sns_CS_i… c_ph           NaN       NA
 5 2013-06-30 01:00:00 c_ph_d100  f_Rotoe… sns_CS_i… c_ph           NaN       NA
 6 2013-06-30 01:15:00 c_ph_d100  f_Rotoe… sns_CS_i… c_ph           NaN       NA
 7 2013-06-30 01:30:00 c_ph_d100  f_Rotoe… sns_CS_i… c_ph           NaN       NA
 8 2013-06-30 01:45:00 c_ph_d100  f_Rotoe… sns_CS_i… c_ph           NaN       NA
 9 2013-06-30 02:00:00 c_ph_d100  f_Rotoe… sns_CS_i… c_ph           NaN       NA
10 2013-06-30 02:15:00 c_ph_d100  f_Rotoe… sns_CS_i… c_ph           NaN       NA
# ℹ 226,120 more rows
# ℹ 2 more variables: qc_flag <chr>, qc_code <chr>
…
